﻿I'm sorry, but an uncaught exception occurred.

While running game code:
  File "game/script.rpy", line 11, in script call
    call ch01
  File "game/scripts/ch01.rpy", line 17, in script call
    call test1
  File "game/script.rpy", line 11, in script call
    call ch01
  File "game/scripts/ch01.rpy", line 17, in script call
    call test1
ScriptError: could not find label 'test1'.

-- Full Traceback ------------------------------------------------------------

Full traceback:
  File "game/script.rpy", line 11, in script call
    call ch01
  File "game/scripts/ch01.rpy", line 17, in script call
    call test1
  File "C:\Users\troyd\Documents\0_PORTABLES\renpy-7.3.2-sdk\renpy\ast.py", line 1436, in execute
    rv = renpy.game.context().call(label, return_site=self.next.name)
  File "game/script.rpy", line 11, in script call
    call ch01
  File "game/scripts/ch01.rpy", line 17, in script call
    call test1
  File "C:\Users\troyd\Documents\0_PORTABLES\renpy-7.3.2-sdk\renpy\script.py", line 894, in lookup
    raise ScriptError("could not find label '%s'." % str(original))
ScriptError: could not find label 'test1'.

Windows-8-6.2.9200
Ren'Py 7.3.3.568
Another Day Gone Past Test Build 1
Wed Oct 02 17:20:56 2019
